Retrieving Destatis data • RUBer
…
Retrieving Data

In this vignette, we are interested in tables with data on universities. On the Landesdatenbank NRW website, the code for tables on universities is “213”. So let us retrieve all table names with code “213” and turn the resulting data frame into a tibble for prettier printing.

# Retrieve all tables with code "213" and turn data frame into tibble
df_table <- wiesbaden::retrieve_datalist(
   tableseries= "21311*",
   genesis = c(db = "nrw")
   ) %>%
  tibble::as_tibble()

df_table
#> # A tibble: 25 x 2
#>    tablename   description                                                      
#>    <chr>       <chr>                                                            
#>  1 21311LS001A Studierende / Studenten, Land, Hochschulen, Studienfach, Fachsem~
#>  2 21311LS002A Studierende / Studenten, Land, Hochschulen, Studienfach, Hochsch~
#>  3 21311NW001A Studierende / Studenten, Land, Hochschulen, Fachsemester, Geschl~
#>  4 21311NW001B Studierende / Studenten, Land, Hochschulen, Fachsemester, Nation~
#>  5 21311NW002A Studierende / Studenten, Land, Hochschulen, Fachsemester, Geschl~
#>  6 21311NW002B Studierende / Studenten, Land, Hochschulen, Fachsemester, Nation~
#>  7 21311NW002C Studierende / Studenten, Land, Fachsemester, Nationalität, Gesch~
#>  8 21311NW003A Studierende / Studenten, Land, Hochschulen, Geschlecht, Hörersta~
#>  9 21311NW003B Studierende / Studenten, Land, Hochschulen, Nationalität, Hörers~
#> 10 21311NW004A Studierende / Studenten, Land, Studienfach, Geschlecht, Hörersta~
#> # ... with 15 more rows
…
# Retrieve data for every table name and bind them into one data frame. Note
# that this may take a while!
df <- purrr::map_dfr(
  table_names,
  wiesbaden::retrieve_data,
  genesis = c(db = "nrw"),
  .id = "tablename"
  ) %>%
  tibble::as_tibble()

df
#> # A tibble: 3,632,429 x 20
#>    tablename id21311 DLAND BILHS1 BILSF1 BILFS1 BILAP1 SEMEST BIL002_val
#>    <chr>     <chr>   <chr> <chr>  <chr>  <chr>  <chr>  <chr>       <dbl>
#>  1 21311LS0~ D       05    HS0034 SF054  FACHS~ AP84   WS 20~         40
#>  2 21311LS0~ D       05    HS0034 SF054  FACHS~ AP84   WS 20~         36
#>  3 21311LS0~ D       05    HS0034 SF054  FACHS~ AP84   WS 20~         35
#>  4 21311LS0~ D       05    HS0034 SF054  FACHS~ AP84   WS 20~         24
#>  5 21311LS0~ D       05    HS0034 SF054  FACHS~ AP84   WS 20~          2
#>  6 21311LS0~ D       05    HS0034 SF069  FACHS~ AP84   WS 20~         18
#>  7 21311LS0~ D       05    HS0034 SF069  FACHS~ AP84   WS 20~         14
#>  8 21311LS0~ D       05    HS0034 SF069  FACHS~ AP84   WS 20~         13
#>  9 21311LS0~ D       05    HS0034 SF069  FACHS~ AP84   WS 20~          7
#> 10 21311LS0~ D       05    HS0034 SF182  FACHS~ AP84   WS 20~         15
#> # ... with 3,632,419 more rows, and 11 more variables: BIL002_qual <chr>,
#> #   BIL002_lock <lgl>, BIL002_err <dbl>, BILSH1 <chr>, GES <chr>, BILHN1 <chr>,
#> #   NAT <chr>, BIL016_val <dbl>, BIL016_qual <chr>, BIL016_lock <lgl>,
#> #   BIL016_err <dbl>

For each table, we now download the available metadata with wiesbaden::retrieve_metadata and put them into one data frame using purrr::map_dfr. The metadata describes the different variables used in each table. The metadata consists of four columns: tablename, (variable) name, (variable) description and (variable) unit. We then create a character vector of the unique variable names for all tables.

# Retrieve metadata for every table name and bind them into one data frame
df_metadata <- purrr::map_dfr(
  table_names,
  wiesbaden::retrieve_metadata,
  genesis = c(db = "nrw"),
  .id = "tablename"
) %>%
  tibble::as_tibble()

df_metadata
#> # A tibble: 154 x 4
#>    tablename   name   description                  unit    
#>    <chr>       <chr>  <chr>                        <chr>   
#>  1 21311LS001A BIL002 Studierende / Studenten      "Anzahl"
#>  2 21311LS001A DLAND  Land                         ""      
#>  3 21311LS001A BILHS1 Hochschulen                  ""      
#>  4 21311LS001A BILSF1 Studienfach                  ""      
#>  5 21311LS001A BILFS1 Fachsemester                 ""      
#>  6 21311LS001A BILAP1 Angestrebte Abschlussprüfung ""      
#>  7 21311LS001A SEMEST Semester                     ""      
#>  8 21311LS002A BIL002 Studierende / Studenten      "Anzahl"
#>  9 21311LS002A DLAND  Land                         ""      
#> 10 21311LS002A BILHS1 Hochschulen                  ""      
#> # ... with 144 more rows
…
df_cleaned
#> # A tibble: 3,632,429 x 14
#>    tablename id21311 dland bilhs1 bilsf1 bilfs1 bilap1 semest bil002_val bilsh1
#>    <chr>     <chr>   <chr> <chr>  <chr>  <chr>  <chr>  <chr>       <dbl> <chr> 
#>  1 21311LS0~ D       05    HS0034 SF054  FACHS~ AP84   WS 20~         40 <NA>  
#>  2 21311LS0~ D       05    HS0034 SF054  FACHS~ AP84   WS 20~         36 <NA>  
#>  3 21311LS0~ D       05    HS0034 SF054  FACHS~ AP84   WS 20~         35 <NA>  
#>  4 21311LS0~ D       05    HS0034 SF054  FACHS~ AP84   WS 20~         24 <NA>  
#>  5 21311LS0~ D       05    HS0034 SF054  FACHS~ AP84   WS 20~          2 <NA>  
#>  6 21311LS0~ D       05    HS0034 SF069  FACHS~ AP84   WS 20~         18 <NA>  
#>  7 21311LS0~ D       05    HS0034 SF069  FACHS~ AP84   WS 20~         14 <NA>  
#>  8 21311LS0~ D       05    HS0034 SF069  FACHS~ AP84   WS 20~         13 <NA>  
#>  9 21311LS0~ D       05    HS0034 SF069  FACHS~ AP84   WS 20~          7 <NA>  
#> 10 21311LS0~ D       05    HS0034 SF182  FACHS~ AP84   WS 20~         15 <NA>  
#> # ... with 3,632,419 more rows, and 4 more variables: ges <chr>, bilhn1 <chr>,
#> #   nat <chr>, bil016_val <dbl>
…
We are now ready to combine the data with the corresponding labels. Before, though, we will retrieve another set of labels, describing the contents of each table. As with the value labels, we rename the generic “description” column to “tablename_description” to make it unique.

For combining tables that share a mutual key or mutal set of keys, we use dplyr::left_join. Because we have so many individual tables and keys, doing this manually would be tedious. To avoid this manual process, we use purrr::reduce on a list of all data frames we want to join. So before applying purrr::reduce, we put the data frame with the actual data, the data frame with the table descriptions, and the list of data frames containing value labels into one big list.

# Create data frame with table name and table description
df_table_descriptions <- df_table %>%
  dplyr::rename(
   tablename_description = description
  )

df_table_descriptions
#> # A tibble: 25 x 2
#>    tablename   tablename_description                                            
#>    <chr>       <chr>                                                            
#>  1 21311LS001A Studierende / Studenten, Land, Hochschulen, Studienfach, Fachsem~
#>  2 21311LS002A Studierende / Studenten, Land, Hochschulen, Studienfach, Hochsch~
#>  3 21311NW001A Studierende / Studenten, Land, Hochschulen, Fachsemester, Geschl~
#>  4 21311NW001B Studierende / Studenten, Land, Hochschulen, Fachsemester, Nation~
#>  5 21311NW002A Studierende / Studenten, Land, Hochschulen, Fachsemester, Geschl~
#>  6 21311NW002B Studierende / Studenten, Land, Hochschulen, Fachsemester, Nation~
#>  7 21311NW002C Studierende / Studenten, Land, Fachsemester, Nationalität, Gesch~
#>  8 21311NW003A Studierende / Studenten, Land, Hochschulen, Geschlecht, Hörersta~
#>  9 21311NW003B Studierende / Studenten, Land, Hochschulen, Nationalität, Hörers~
#> 10 21311NW004A Studierende / Studenten, Land, Studienfach, Geschlecht, Hörersta~
#> # ... with 15 more rows
…
# Join data with all the value label data frames to create one big data frame
df_joined <- purrr::reduce(
  df_list,
  dplyr::left_join
) %>%
  tibble::as_tibble()

df_joined
#> # A tibble: 3,632,429 x 24
#>    tablename id21311 dland bilhs1 bilsf1 bilfs1 bilap1 semest bil002_val bilsh1
#>    <chr>     <chr>   <chr> <chr>  <chr>  <chr>  <chr>  <chr>       <dbl> <chr> 
#>  1 21311LS0~ D       05    HS0034 SF054  FACHS~ AP84   WS 20~         40 <NA>  
#>  2 21311LS0~ D       05    HS0034 SF054  FACHS~ AP84   WS 20~         36 <NA>  
#>  3 21311LS0~ D       05    HS0034 SF054  FACHS~ AP84   WS 20~         35 <NA>  
#>  4 21311LS0~ D       05    HS0034 SF054  FACHS~ AP84   WS 20~         24 <NA>  
#>  5 21311LS0~ D       05    HS0034 SF054  FACHS~ AP84   WS 20~          2 <NA>  
#>  6 21311LS0~ D       05    HS0034 SF069  FACHS~ AP84   WS 20~         18 <NA>  
#>  7 21311LS0~ D       05    HS0034 SF069  FACHS~ AP84   WS 20~         14 <NA>  
#>  8 21311LS0~ D       05    HS0034 SF069  FACHS~ AP84   WS 20~         13 <NA>  
#>  9 21311LS0~ D       05    HS0034 SF069  FACHS~ AP84   WS 20~          7 <NA>  
#> 10 21311LS0~ D       05    HS0034 SF182  FACHS~ AP84   WS 20~         15 <NA>  
#> # ... with 3,632,419 more rows, and 14 more variables: ges <chr>, bilhn1 <chr>,
#> #   nat <chr>, bil016_val <dbl>, tablename_description <chr>,
#> #   dland_description <chr>, bilhs1_description <chr>,
#> #   bilsf1_description <chr>, bilfs1_description <chr>,
#> #   bilap1_description <chr>, bilsh1_description <chr>, ges_description <chr>,
#> #   bilhn1_description <chr>, nat_description <chr>
…
db_nrw_213
#> # A tibble: 3,632,429 x 24
#>    tablename tablename_descr~ bilap1 bilap1_descript~ bilfs1 bilfs1_descript~
#>    <chr>     <chr>            <chr>  <chr>            <chr>  <chr>           
#>  1 21311LS0~ Studierende / S~ AP84   Bachelor (FH)    FACHS~ 1. Fachsemester 
#>  2 21311LS0~ Studierende / S~ AP84   Bachelor (FH)    FACHS~ 3. Fachsemester 
#>  3 21311LS0~ Studierende / S~ AP84   Bachelor (FH)    FACHS~ 5. Fachsemester 
#>  4 21311LS0~ Studierende / S~ AP84   Bachelor (FH)    FACHS~ 7. Fachsemester 
#>  5 21311LS0~ Studierende / S~ AP84   Bachelor (FH)    FACHS~ 9. Fachsemester 
#>  6 21311LS0~ Studierende / S~ AP84   Bachelor (FH)    FACHS~ 1. Fachsemester 
#>  7 21311LS0~ Studierende / S~ AP84   Bachelor (FH)    FACHS~ 3. Fachsemester 
#>  8 21311LS0~ Studierende / S~ AP84   Bachelor (FH)    FACHS~ 5. Fachsemester 
#>  9 21311LS0~ Studierende / S~ AP84   Bachelor (FH)    FACHS~ 7. Fachsemester 
#> 10 21311LS0~ Studierende / S~ AP84   Bachelor (FH)    FACHS~ 1. Fachsemester 
#> # ... with 3,632,419 more rows, and 18 more variables: bilhn1 <chr>,
#> #   bilhn1_description <chr>, bilhs1 <chr>, bilhs1_description <chr>,
#> #   bilsf1 <chr>, bilsf1_description <chr>, bilsh1 <chr>,
#> #   bilsh1_description <chr>, dland <chr>, dland_description <chr>, ges <chr>,
#> #   ges_description <chr>, id21311 <chr>, nat <chr>, nat_description <chr>,
#> #   semest <chr>, bil002_val <dbl>, bil016_val <dbl>
…
